2020-09-02 16:00:00, Research Presentation, Mustafa Matar
2020-09-09 16:00:00, Reading Group, Nathaniel Ogilvie
2020-09-16 16:00:00, Research Presentation, Colin Van Oort
2020-09-23 16:00:00, Reading Group, Fayha Almutairy
2020-09-30 16:00:00, Research Presentation, Xiaohan Zhang
2020-10-07 16:00:00, Reading Group, Daniel Wilson
2020-10-14 16:00:00, Research Presentation, James Voynow
2020-10-21 16:00:00, Reading Group, Mustafa Matar
2020-10-28 16:00:00, Research Presentation, Nathaniel Ogilvie
2020-11-04 16:00:00, Reading Group, Xiaohan Zhang
2020-11-11 16:00:00, Research Presentation, Daniel Wilson
2020-11-18 16:00:00, Reading Group, Ibne Farabi Shihab
2020-12-02 16:00:00, Research Presentation, Fayha Almutairy
